%YAML 1.1
%TAG !u! tag:unity3d.com,2011:
--- !u!74 &7400000
AnimationClip:
  m_ObjectHideFlags: 0
  m_PrefabParentObject: {fileID: 0}
  m_PrefabInternal: {fileID: 0}
  m_Name: circle
  serializedVersion: 4
  m_AnimationType: 2
  m_Compressed: 0
  m_UseHighQualityCurve: 1
  m_RotationCurves: []
  m_CompressedRotationCurves: []
  m_PositionCurves:
  - curve:
      serializedVersion: 2
      m_Curve:
      - time: 0
        value: {x: -11.8085995, y: .632341504, z: -1.99329996}
        inSlope: {x: 4.15626621, y: 3.08050561, z: 0}
        outSlope: {x: 4.15626621, y: 3.08050561, z: 0}
        tangentMode: 0
      - time: 1.5
        value: {x: -5.57420015, y: 5.25309992, z: -1.99329996}
        inSlope: {x: 3.8540597, y: -.181111813, z: 0}
        outSlope: {x: 3.8540597, y: -.181111813, z: 0}
        tangentMode: 1232236404
      - time: 3
        value: {x: -.246419996, y: .0890059993, z: -1.99329996}
        inSlope: {x: -.0796000957, y: -2.93086672, z: 0}
        outSlope: {x: -.0796000957, y: -2.93086672, z: 0}
        tangentMode: 95
      - time: 4.5
        value: {x: -5.8130002, y: -3.5395, z: -1.99329996}
        inSlope: {x: -3.85405993, y: .181111932, z: 0}
        outSlope: {x: -3.85405993, y: .181111932, z: 0}
        tangentMode: 0
      - time: 6
        value: {x: -11.8085995, y: .632341504, z: -1.99329996}
        inSlope: {x: -3.99706626, y: 2.78122783, z: 0}
        outSlope: {x: -3.99706626, y: 2.78122783, z: 0}
        tangentMode: 0
      m_PreInfinity: 2
      m_PostInfinity: 2
    path: GameObject
  - curve:
      serializedVersion: 2
      m_Curve:
      - time: 0
        value: {x: 0, y: -.174458504, z: -1.99329996}
        inSlope: {x: -3.76506686, y: -2.78709435, z: 0}
        outSlope: {x: -3.76506686, y: -2.78709435, z: 0}
        tangentMode: 0
      - time: 1.5
        value: {x: -5.64760017, y: -4.35510015, z: -1.99329996}
        inSlope: {x: -3.79299998, y: .0271785259, z: 0}
        outSlope: {x: -3.79299998, y: .0271785259, z: 0}
        tangentMode: 756556552
      - time: 3
        value: {x: -11.3789997, y: -.0929230005, z: -1.99329996}
        inSlope: {x: .0235667229, y: 2.98000002, z: 0}
        outSlope: {x: .0235667229, y: 2.98000002, z: 0}
        tangentMode: 0
      - time: 4.5
        value: {x: -5.57690001, y: 4.5848999, z: -1.99329996}
        inSlope: {x: 3.79299998, y: -.0271785259, z: 0}
        outSlope: {x: 3.79299998, y: -.0271785259, z: 0}
        tangentMode: 48
      - time: 6
        value: {x: 0, y: -.174458504, z: -1.99329996}
        inSlope: {x: 3.71793342, y: -3.17290568, z: 0}
        outSlope: {x: 3.71793342, y: -3.17290568, z: 0}
        tangentMode: 0
      m_PreInfinity: 2
      m_PostInfinity: 2
    path: GameObject_brett
  m_ScaleCurves: []
  m_FloatCurves: []
  m_PPtrCurves: []
  m_SampleRate: 10
  m_WrapMode: 0
  m_Bounds:
    m_Center: {x: 0, y: 0, z: 0}
    m_Extent: {x: 0, y: 0, z: 0}
  m_ClipBindingConstant:
    genericBindings:
    - path: 1482111001
      attribute: 1
      script: {fileID: 0}
      classID: 4
      customType: 0
      isPPtrCurve: 0
    - path: 3171205024
      attribute: 1
      script: {fileID: 0}
      classID: 4
      customType: 0
      isPPtrCurve: 0
    pptrCurveMapping: []
  m_AnimationClipSettings:
    serializedVersion: 2
    m_StartTime: 0
    m_StopTime: 6
    m_OrientationOffsetY: 0
    m_Level: 0
    m_CycleOffset: 0
    m_LoopTime: 1
    m_LoopBlend: 0
    m_LoopBlendOrientation: 0
    m_LoopBlendPositionY: 0
    m_LoopBlendPositionXZ: 0
    m_KeepOriginalOrientation: 0
    m_KeepOriginalPositionY: 1
    m_KeepOriginalPositionXZ: 0
    m_HeightFromFeet: 0
    m_Mirror: 0
  m_EditorCurves:
  - curve:
      serializedVersion: 2
      m_Curve:
      - time: 0
        value: -11.8085995
        inSlope: 4.15626621
        outSlope: 4.15626621
        tangentMode: 10
      - time: 1.5
        value: -5.57420015
        inSlope: 3.8540597
        outSlope: 3.8540597
        tangentMode: 10
      - time: 3
        value: -.246419996
        inSlope: -.0796000957
        outSlope: -.0796000957
        tangentMode: 10
      - time: 4.5
        value: -5.8130002
        inSlope: -3.85405993
        outSlope: -3.85405993
        tangentMode: 10
      - time: 6
        value: -11.8085995
        inSlope: -3.99706626
        outSlope: -3.99706626
        tangentMode: 10
      m_PreInfinity: 2
      m_PostInfinity: 2
    attribute: m_LocalPosition.x
    path: GameObject
    classID: 4
    script: {fileID: 0}
  - curve:
      serializedVersion: 2
      m_Curve:
      - time: 0
        value: .632341504
        inSlope: 3.08050561
        outSlope: 3.08050561
        tangentMode: 10
      - time: 1.5
        value: 5.25309992
        inSlope: -.181111813
        outSlope: -.181111813
        tangentMode: 10
      - time: 3
        value: .0890059993
        inSlope: -2.93086672
        outSlope: -2.93086672
        tangentMode: 10
      - time: 4.5
        value: -3.5395
        inSlope: .181111932
        outSlope: .181111932
        tangentMode: 10
      - time: 6
        value: .632341504
        inSlope: 2.78122783
        outSlope: 2.78122783
        tangentMode: 10
      m_PreInfinity: 2
      m_PostInfinity: 2
    attribute: m_LocalPosition.y
    path: GameObject
    classID: 4
    script: {fileID: 0}
  - curve:
      serializedVersion: 2
      m_Curve:
      - time: 0
        value: -1.99329996
        inSlope: 0
        outSlope: 0
        tangentMode: 10
      - time: 1.5
        value: -1.99329996
        inSlope: 0
        outSlope: 0
        tangentMode: 10
      - time: 3
        value: -1.99329996
        inSlope: 0
        outSlope: 0
        tangentMode: 10
      - time: 4.5
        value: -1.99329996
        inSlope: 0
        outSlope: 0
        tangentMode: 10
      - time: 6
        value: -1.99329996
        inSlope: 0
        outSlope: 0
        tangentMode: 10
      m_PreInfinity: 2
      m_PostInfinity: 2
    attribute: m_LocalPosition.z
    path: GameObject
    classID: 4
    script: {fileID: 0}
  - curve:
      serializedVersion: 2
      m_Curve:
      - time: 0
        value: 0
        inSlope: -3.76506686
        outSlope: -3.76506686
        tangentMode: 10
      - time: 1.5
        value: -5.64760017
        inSlope: -3.79299998
        outSlope: -3.79299998
        tangentMode: 10
      - time: 3
        value: -11.3789997
        inSlope: .0235667229
        outSlope: .0235667229
        tangentMode: 10
      - time: 4.5
        value: -5.57690001
        inSlope: 3.79299998
        outSlope: 3.79299998
        tangentMode: 10
      - time: 6
        value: 0
        inSlope: 3.71793342
        outSlope: 3.71793342
        tangentMode: 10
      m_PreInfinity: 2
      m_PostInfinity: 2
    attribute: m_LocalPosition.x
    path: GameObject_brett
    classID: 4
    script: {fileID: 0}
  - curve:
      serializedVersion: 2
      m_Curve:
      - time: 0
        value: -.174458504
        inSlope: -2.78709435
        outSlope: -2.78709435
        tangentMode: 10
      - time: 1.5
        value: -4.35510015
        inSlope: .0271785259
        outSlope: .0271785259
        tangentMode: 10
      - time: 3
        value: -.0929230005
        inSlope: 2.98000002
        outSlope: 2.98000002
        tangentMode: 10
      - time: 4.5
        value: 4.5848999
        inSlope: -.0271785259
        outSlope: -.0271785259
        tangentMode: 10
      - time: 6
        value: -.174458504
        inSlope: -3.17290568
        outSlope: -3.17290568
        tangentMode: 10
      m_PreInfinity: 2
      m_PostInfinity: 2
    attribute: m_LocalPosition.y
    path: GameObject_brett
    classID: 4
    script: {fileID: 0}
  - curve:
      serializedVersion: 2
      m_Curve:
      - time: 0
        value: -1.99329996
        inSlope: 0
        outSlope: 0
        tangentMode: 10
      - time: 1.5
        value: -1.99329996
        inSlope: 0
        outSlope: 0
        tangentMode: 10
      - time: 3
        value: -1.99329996
        inSlope: 0
        outSlope: 0
        tangentMode: 10
      - time: 4.5
        value: -1.99329996
        inSlope: 0
        outSlope: 0
        tangentMode: 10
      - time: 6
        value: -1.99329996
        inSlope: 0
        outSlope: 0
        tangentMode: 10
      m_PreInfinity: 2
      m_PostInfinity: 2
    attribute: m_LocalPosition.z
    path: GameObject_brett
    classID: 4
    script: {fileID: 0}
  m_EulerEditorCurves: []
  m_Events: []
